…
``` r
sorted_salary <- arrange(teams, desc(salary))
sorted_salary
```

    ## # A tibble: 30 x 15
    ##     team experience salary points3 points2 free_throws points off_rebounds
    ##    <chr>      <int>  <dbl>   <int>   <int>       <int>  <dbl>        <int>
    ##  1   CLE        128 125.80    1012    2107        1355   8605          727
    ##  2   LAC        124 114.77     841    2401        1586   8911          740
    ##  3   TOR         57 108.45     626    2359        1570   8166          848
    ##  4   MEM         83 108.34     750    2140        1465   7995          866
    ##  5   SAS         99 104.69     743    2459        1431   8578          821
    ##  6   DET         55 103.07     631    2638        1140   8309          908
    ##  7   POR         43 103.02     852    2156        1386   8254          710
    ##  8   ORL         57 102.40     614    2168        1230   7408          699
    ##  9   CHO         66 100.23     808    2102        1499   8127          634
    ## 10   WAS         56  98.77     671    2417        1316   8163          748
    ## # ... with 20 more rows, and 7 more variables: def_rebounds <int>,
    ## #   assists <int>, steals <int>, blocks <int>, turnovers <int>,
    ## #   fouls <int>, efficiency <dbl>
…
``` r
sorted_points <- teams %>%
  arrange(desc(points))
sorted_points
```

    ## # A tibble: 30 x 15
    ##     team experience salary points3 points2 free_throws points off_rebounds
    ##    <chr>      <int>  <dbl>   <int>   <int>       <int>  <dbl>        <int>
    ##  1   GSW        101  98.67     982    2540        1447   9473          759
    ##  2   LAC        124 114.77     841    2401        1586   8911          740
    ##  3   BOS         63  91.92     985    2183        1536   8857          744
    ##  4   DEN         74  78.39     868    2347        1471   8769          867
    ##  5   MIN         48  59.38     601    2623        1585   8634          938
    ##  6   CLE        128 125.80    1012    2107        1355   8605          727
    ##  7   SAS         99 104.69     743    2459        1431   8578          821
    ##  8   HOU         56  84.67    1141    1769        1508   8469          766
    ##  9   PHO         68  72.51     564    2551        1605   8399          882
    ## 10   MIL         64  90.27     718    2424        1388   8390          700
    ## # ... with 20 more rows, and 7 more variables: def_rebounds <int>,
    ## #   assists <int>, steals <int>, blocks <int>, turnovers <int>,
    ## #   fouls <int>, efficiency <dbl>
…
``` r
sorted_eff <- teams %>%
  arrange(desc(efficiency))
sorted_eff
```

    ## # A tibble: 30 x 15
    ##     team experience salary points3 points2 free_throws points off_rebounds
    ##    <chr>      <int>  <dbl>   <int>   <int>       <int>  <dbl>        <int>
    ##  1   CLE        128 125.80    1012    2107        1355   8605          727
    ##  2   GSW        101  98.67     982    2540        1447   9473          759
    ##  3   DEN         74  78.39     868    2347        1471   8769          867
    ##  4   NOP         55  90.63     513    1952        1120   6563          580
    ##  5   PHI         34  55.78     690    1917        1212   7116          673
    ##  6   TOR         57 108.45     626    2359        1570   8166          848
    ##  7   HOU         56  84.67    1141    1769        1508   8469          766
    ##  8   MIL         64  90.27     718    2424        1388   8390          700
    ##  9   MIA         63  72.78     799    2349        1217   8312          857
    ## 10   SAC         68  88.20     558    1838         998   6348          524
    ## # ... with 20 more rows, and 7 more variables: def_rebounds <int>,
    ## #   assists <int>, steals <int>, blocks <int>, turnovers <int>,
    ## #   fouls <int>, efficiency <dbl>
…
