…
``` r
gdp <- gdp %>% mutate(avg_2017 = (Q1_2017 + Q2_2017) / 2)
gdp <- gdp %>% select(Locations, Area, avg_2016, avg_2017)
gdp
```

    ## # A tibble: 60 x 4
    ##        Locations   Area avg_2016 avg_2017
    ##            <chr>  <chr>    <dbl>    <dbl>
    ##  1 United States  Total      1.5     1.90
    ##  2   New England Region      1.0     1.75
    ##  3   Connecticut  State      0.0    -1.50
    ##  4         Maine  State      1.6     2.20
    ##  5 Massachusetts  State      1.5     3.15
    ##  6 New Hampshire  State      1.6     4.10
    ##  7  Rhode Island  State      0.5     1.55
    ##  8       Vermont  State      0.7     1.70
    ##  9       Mideast Region      0.7     1.25
    ## 10      Delaware  State      0.1     1.45
    ## # ... with 50 more rows
…
``` r
#Categorize by State GDP
gdp_state <- gdp %>% filter(Area == "State")

#Sort States in alphabetical order
gdp_state <- gdp_state %>% arrange(Locations)

#Set the color for negative vs postive GDP Changes
gdp_state$color <- ifelse((gdp_state$avg_2017 - gdp_state$avg_2016) < 0,"decrease", "increase")

gdp_state
```

    ## # A tibble: 50 x 5
    ##      Locations  Area avg_2016 avg_2017    color
    ##          <chr> <chr>    <dbl>    <dbl>    <chr>
    ##  1     Alabama State      1.5     3.30 increase
    ##  2      Alaska State     -5.4     2.00 increase
    ##  3     Arizona State      2.6     2.25 decrease
    ##  4    Arkansas State      0.9     3.75 increase
    ##  5  California State      3.3     1.35 decrease
    ##  6    Colorado State      1.1     3.25 increase
    ##  7 Connecticut State      0.0    -1.50 decrease
    ##  8    Delaware State      0.1     1.45 increase
    ##  9     Florida State      2.4     2.80 increase
    ## 10     Georgia State      3.0     2.05 decrease
    ## # ... with 40 more rows
…
